<svg xmlns="http://www.w3.org/2000/svg" width="43" height="43" viewBox="0 0 43 43">
  <g fill="none" fill-rule="evenodd">
    <circle cx="21.5" cy="21.5" r="21.5" fill="#707A8D"/>
    <path fill="#FFF" d="M33.7763158,20.78125 L33.7763158,17.5 L31.4736842,17.5 L31.4736842,20.78125 L28.1578947,20.78125 L28.1578947,23.125 L31.4736842,23.125 L31.4736842,26.5 L33.7763158,26.5 L33.7763158,23.125 L37,23.125 L37,20.78125 L33.7763158,20.78125 Z M17.9664038,20.2178218 L17.9664038,23.7821782 C17.9664038,23.7821782 21.4112784,23.7775446 22.8139435,23.7775446 C22.0543737,26.0882277 20.8732941,27.3465347 17.9664038,27.3465347 C15.0246244,27.3465347 12.7286036,24.952802 12.7286036,22 C12.7286036,19.047198 15.0246244,16.6534653 17.9664038,16.6534653 C19.5217641,16.6534653 20.5262677,17.202198 21.4476766,17.9670198 C22.1852299,17.226703 22.1236192,17.121198 24.0000833,15.342495 C22.4071706,13.8871683 20.290034,13 17.9664038,13 C13.0143744,13 9,17.0294158 9,22 C9,26.970495 13.0143744,31 17.9664038,31 C25.3683033,31 27.177475,24.5306931 26.5777025,20.2178218 C24.8254364,20.2178218 17.9664038,20.2178218 17.9664038,20.2178218 L17.9664038,20.2178218 Z"/>
  </g>
</svg>
