<svg xmlns="http://www.w3.org/2000/svg" width="43" height="43" viewBox="0 0 43 43">
  <g fill="none" fill-rule="evenodd">
    <circle cx="21.5" cy="21.5" r="21.5" fill="#707A8D"/>
    <g fill="#FFF" transform="translate(10 10)">
      <path d="M11.5000228,0 C8.37678752,0 7.98516199,0.0132383034 6.75856471,0.069204372 C5.53452379,0.125033493 4.69854776,0.319453955 3.96706302,0.603757932 C3.21083636,0.897602617 2.56950903,1.29082588 1.93014463,1.93014463 C1.29082588,2.56950903 0.897602617,3.21083636 0.603757932,3.96706302 C0.319453955,4.69854776 0.125033493,5.53452379 0.069204372,6.75856471 C0.0132383034,7.98516199 0,8.37678752 0,11.5000228 C0,14.6232125 0.0132383034,15.014838 0.069204372,16.2414353 C0.125033493,17.4654762 0.319453955,18.3014522 0.603757932,19.032937 C0.897602617,19.7891636 1.29082588,20.430491 1.93014463,21.0698554 C2.56950903,21.7091741 3.21083636,22.1023974 3.96706302,22.3962877 C4.69854776,22.680546 5.53452379,22.8749665 6.75856471,22.9307956 C7.98516199,22.9867617 8.37678752,23 11.5000228,23 C14.6232125,23 15.014838,22.9867617 16.2414353,22.9307956 C17.4654762,22.8749665 18.3014522,22.680546 19.032937,22.3962877 C19.7891636,22.1023974 20.430491,21.7091741 21.0698554,21.0698554 C21.7091741,20.430491 22.1023974,19.7891636 22.3962877,19.032937 C22.680546,18.3014522 22.8749665,17.4654762 22.9307956,16.2414353 C22.9867617,15.014838 23,14.6232125 23,11.5000228 C23,8.37678752 22.9867617,7.98516199 22.9307956,6.75856471 C22.8749665,5.53452379 22.680546,4.69854776 22.3962877,3.96706302 C22.1023974,3.21083636 21.7091741,2.56950903 21.0698554,1.93014463 C20.430491,1.29082588 19.7891636,0.897602617 19.032937,0.603757932 C18.3014522,0.319453955 17.4654762,0.125033493 16.2414353,0.069204372 C15.014838,0.0132383034 14.6232125,0 11.5000228,0 Z M11.5000228,2.07206837 C14.5706245,2.07206837 14.9343583,2.08380025 16.1469868,2.13912722 C17.2682255,2.19025447 17.8771418,2.37759928 18.2823708,2.53508944 C18.8191612,2.74370684 19.2022503,2.99290649 19.6046491,3.39535091 C20.0070935,3.79774969 20.2562932,4.1808388 20.4649106,4.71762917 C20.6224007,5.1228582 20.8097455,5.73177451 20.8608728,6.85301315 C20.9161998,8.06564174 20.9279316,8.42937554 20.9279316,11.5000228 C20.9279316,14.5706245 20.9161998,14.9343583 20.8608728,16.1469868 C20.8097455,17.2682255 20.6224007,17.8771418 20.4649106,18.2823708 C20.2562932,18.8191612 20.0070935,19.2022503 19.6046491,19.6046491 C19.2022503,20.0070935 18.8191612,20.2562932 18.2823708,20.4649106 C17.8771418,20.6224007 17.2682255,20.8097455 16.1469868,20.8608728 C14.9345409,20.9161998 14.5708527,20.9279316 11.5000228,20.9279316 C8.42914729,20.9279316 8.06550479,20.9161998 6.85301315,20.8608728 C5.73177451,20.8097455 5.1228582,20.6224007 4.71762917,20.4649106 C4.1808388,20.2562932 3.79774969,20.0070935 3.39535091,19.6046491 C2.99295214,19.2022503 2.74370684,18.8191612 2.53508944,18.2823708 C2.37759928,17.8771418 2.19025447,17.2682255 2.13912722,16.1469868 C2.08380025,14.9343583 2.07206837,14.5706245 2.07206837,11.5000228 C2.07206837,8.42937554 2.08380025,8.06564174 2.13912722,6.85301315 C2.19025447,5.73177451 2.37759928,5.1228582 2.53508944,4.71762917 C2.74370684,4.1808388 2.99290649,3.79774969 3.39535091,3.39535091 C3.79774969,2.99290649 4.1808388,2.74370684 4.71762917,2.53508944 C5.1228582,2.37759928 5.73177451,2.19025447 6.85301315,2.13912722 C8.06564174,2.08380025 8.42937554,2.07206837 11.5000228,2.07206837 L11.5000228,2.07206837 Z"/>
      <path d="M11.5000222 15.2324585C9.43861048 15.2324585 7.76754152 13.5613895 7.76754152 11.5000222 7.76754152 9.43861048 9.43861048 7.76754152 11.5000222 7.76754152 13.5613895 7.76754152 15.2324585 9.43861048 15.2324585 11.5000222 15.2324585 13.5613895 13.5613895 15.2324585 11.5000222 15.2324585zM11.5000222 5.75C8.32434227 5.75 5.75 8.32434227 5.75 11.5000222 5.75 14.6756577 8.32434227 17.25 11.5000222 17.25 14.6756577 17.25 17.25 14.6756577 17.25 11.5000222 17.25 8.32434227 14.6756577 5.75 11.5000222 5.75L11.5000222 5.75zM18.6875 5.75002378C18.6875 6.54394052 18.043893 7.1875 17.2499762 7.1875 16.456107 7.1875 15.8125 6.54394052 15.8125 5.75002378 15.8125 4.95610704 16.456107 4.3125 17.2499762 4.3125 18.043893 4.3125 18.6875 4.95610704 18.6875 5.75002378"/>
    </g>
  </g>
</svg>
